#Output values file generated by Xhydro
5
ReportTime
point# 1
point# 3
point# 4
point# 2
1	-60	-60	-60	-60	
2	-60	-60	-60	-60	
3	-60	-60	-60	-60	
4	-60.0001	-60	-60	-60	
5	-60.0002	-60	-60.0001	-60	
6	-60.0003	-60	-60.0231	-60	
7	-60.0004	-60	-60.8572	-60	
8	-60.0005	-60	-74.6986	-60	
9	-60.0006	-60	-96.3952	-60	
10	-60.0008	-60	-101.968	-60	
11	-126.513	-60	-124.199	-60	
12	-127.82	-60	-125.489	-60	
13	-127.084	-60	-124.79	-60	
14	-125.863	-60	-123.959	-60	
15	-124.405	-60	-123.148	-60	
16	-123.185	-60	-122.56	-60	
17	-122.325	-60	-122.21	-60	
18	-121.59	-60	-121.844	-60	
19	-133.801	-60	-130.372	-60	
20	-138.29	-60	-135.768	-60	
21	-147.596	-60	-146.497	-60	
22	-147.318	-60	-146.223	-60	
23	-146.201	-60	-145.173	-60	
24	-144.296	-60	-143.529	-60	
25	-141.91	-60	-141.466	-60	
26	-136.72	-60	-137.858	-60	
27	-149.808	-60	-148.82	-60	
28	-150.001	-60	-149.419	-60	
29	-149.59	-60	-148.821	-60	
30	-149.306	-60	-148.309	-60	
31	-147.439	-60	-146.657	-60	
32	-143.178	-60	-143.508	-60	
33	-139.319	-60	-140.123	-60	
34	-136.104	-60	-136.973	-60	
35	-130.586	-60	-132.58	-60	
36	-152.136	-60	-151.565	-60	
37	-150.502	-60	-150.202	-60	
38	-149.238	-60	-148.835	-60	
39	-152.416	-60	-151.918	-60	
40	-150.032	-60	-150.033	-60	
41	-148.726	-60	-148.729	-60	
42	-146.81	-60	-146.93	-60	
43	-144.929	-60	-145.01	-60	
44	-143.408	-60	-143.288	-60	
45	-138.623	-60	-139.718	-60	
46	-146.595	-60	-144.298	-60	
47	-152.007	-60	-151.093	-60	
48	-152.745	-60	-152.315	-60	
49	-152.624	-60	-152.288	-60	
50	-152.477	-60	-152.11	-60	
51	-152.915	-60	-152.607	-60	
52	-152.38	-60	-151.639	-60	
53	-151.802	-60	-150.295	-60	
54	-151.035	-60	-148.498	-60	
55	-143.427	-60	-143.692	-60	
56	-138.688	-60	-139.264	-60	
57	-136.561	-60	-136.239	-60	
58	-135.273	-60	-133.943	-60	
59	-145.051	-60	-141.449	-60	
60	-147.242	-60	-144.687	-60	
61	-145.133	-60	-143.333	-60	
62	-150.852	-60	-150.045	-60	
63	-149.279	-60	-148.686	-60	
64	-148.639	-60	-147.915	-60	
65	-147.796	-60	-146.936	-60	
66	-149.161	-60	-148.316	-60	
67	-145.24	-60	-145.254	-60	
68	-143.684	-60	-142.787	-60	
69	-138.017	-60	-138.691	-60	
70	-132.212	-60	-133.799	-60	
71	-127.352	-60	-128.602	-60	
72	-123.713	-60	-124.055	-60	
73	-134.576	-60	-130.131	-60	
74	-140.176	-60	-136.821	-60	
75	-134.736	-60	-133.837	-60	
76	-128.748	-60	-129.058	-60	
77	-123.991	-60	-124.473	-60	
78	-119.569	-60	-119.631	-60	
79	-116.008	-60	-115.347	-60	
80	-116.271	-60	-113.55	-60	
81	-115.826	-60	-112.411	-60	
82	-113.174	-60	-110.331	-60	
83	-110.709	-60	-107.908	-60	
84	-108.802	-60	-105.65	-60	
85	-106.842	-60	-103.62	-60	
86	-107.866	-60	-103.882	-60	
87	-118.007	-60	-119.592	-60	
88	-127.886	-60	-134.147	-60	
89	-114.824	-60	-124.29	-60	
90	-109.683	-60	-115.352	-60	
91	-107.644	-60	-109.21	-60	
92	-106.107	-60	-105.209	-60	
93	-105.545	-60	-103.059	-60	
94	-106.344	-60	-102.434	-60	
95	-105.495	-60	-101.872	-60	
96	-104.607	-60	-101.064	-60	
97	-102.971	-60	-100.643	-60	
98	-103.972	-60	-102.077	-60	
99	-104.728	-60	-101.538	-60	
100	-102.359	-60	-100.399	-60	
101	-99.996	-60	-98.5576	-60	
102	-97.33	-60	-96.1055	-60	
103	-98.2668	-60	-94.9485	-60	
104	-98.8711	-60	-95.9867	-60	
105	-96.2585	-60	-95.1986	-60	
106	-94.1833	-60	-93.5406	-60	
107	-91.3832	-60	-90.9891	-60	
108	-89.2729	-60	-88.3964	-60	
109	-88.9519	-60	-86.7723	-60	
110	-88.8357	-60	-86.0709	-60	
111	-88.8798	-60	-85.7506	-60	
112	-88.8876	-60	-86.2001	-60	
113	-88.4982	-60	-87.0456	-60	
114	-88.8407	-60	-87.5495	-60	
115	-88.7615	-60	-87.7767	-60	
116	-87.6409	-60	-86.8239	-60	
117	-88.4791	-60	-86.7269	-60	
118	-86.9199	-60	-87.0144	-60	
119	-85.914	-60	-86.4157	-60	
120	-85.083	-60	-85.5241	-60	
121	-85.2999	-60	-85.5606	-60	
122	-84.7876	-60	-85.0619	-60	
123	-85.2213	-60	-85.7501	-60	
124	-84.6655	-60	-85.4503	-60	
125	-83.9489	-60	-84.5339	-60	
126	-83.3692	-60	-83.5069	-60	
127	-82.8618	-60	-82.5476	-60	
128	-82.0349	-60	-81.8488	-60	
129	-81.6752	-60	-81.2646	-60	
130	-81.8381	-60	-81.2134	-60	
131	-81.2282	-60	-80.232	-60	
132	-82.3989	-60	-81.4099	-60	
133	-82.2231	-60	-81.7038	-60	
134	-82.0999	-60	-81.6835	-60	
135	-80.7093	-60	-80.4924	-60	
136	-80.6823	-60	-79.492	-60	
137	-81.6082	-60	-80.1892	-60	
138	-82.4685	-60	-81.4418	-60	
