#Output values file generated by Xhydro
5
ReportTime
point# 1
point# 3
point# 4
point# 2
1	2.13518e-07	0	1.45798e-07	0	
2	6.93113e-07	0	5.24686e-07	0	
3	1.39055e-06	0	1.17436e-06	0	
4	2.27484e-06	0	2.14771e-06	0	
5	3.30225e-06	0	3.4862e-06	0	
6	4.41974e-06	0	5.21607e-06	0	
7	5.57888e-06	0	7.61691e-06	0	
8	6.74769e-06	0	1.67382e-05	0	
9	7.91401e-06	0	0.000107917	0	
10	9.08133e-06	0	0.000533181	0	
11	0.000954175	0	0.0160721	0	
12	0.00418234	0	0.0478497	0	
13	0.00675998	0	0.0626699	0	
14	0.00804725	0	0.0640243	0	
15	0.00871655	0	0.0617884	0	
16	0.00832077	0	0.0556693	0	
17	0.00773624	0	0.0520869	0	
18	0.00851645	0	0.0546941	0	
19	0.0483177	0	0.144837	0	
20	0.170001	0	0.408724	0	
21	2.01189	0	4.08453	0	
22	0.951643	0	3.03714	0	
23	0.426547	0	1.75696	0	
24	0.207592	0	1.00831	0	
25	0.110744	0	0.604224	0	
26	0.0715057	0	0.402257	0	
27	3.09233	0	5.86335	0	
28	4.0323	0	9.55246	0	
29	1.44878	0	5.03698	0	
30	0.55212	0	2.42531	0	
31	0.246461	0	1.2552	0	
32	0.130719	0	0.721345	0	
33	0.075407	0	0.446411	0	
34	0.0464165	0	0.292745	0	
35	0.0440245	0	0.234985	0	
36	6.13484	0	12.2353	0	
37	3.21205	0	9.13298	0	
38	2.06726	0	6.26969	0	
39	7.82123	0	18.0051	0	
40	2.52917	0	8.5862	0	
41	0.851867	0	3.7123	0	
42	0.34091	0	1.74354	0	
43	0.157443	0	0.899624	0	
44	0.0812757	0	0.503156	0	
45	0.0617773	0	0.352105	0	
46	0.469467	0	0.96876	0	
47	4.03956	0	7.73077	0	
48	7.78402	0	17.6902	0	
49	7.32687	0	18.5942	0	
50	6.62805	0	17.0419	0	
51	10.4727	0	24.7926	0	
52	2.90225	0	10.0613	0	
53	0.926167	0	4.1017	0	
54	0.355771	0	1.86899	0	
55	0.263019	0	1.17282	0	
56	0.154269	0	0.756723	0	
57	0.0881061	0	0.487721	0	
58	0.0531962	0	0.323374	0	
59	0.442546	0	0.895102	0	
60	1.14334	0	2.14707	0	
61	1.01633	0	2.37921	0	
62	5.1024	0	11.0865	0	
63	2.9181	0	7.91387	0	
64	2.45028	0	6.66637	0	
65	2.06355	0	5.57806	0	
66	3.22459	0	7.91624	0	
67	1.45225	0	4.42178	0	
68	1.12382	0	3.21006	0	
69	0.63471	0	2.01804	0	
70	0.390525	0	1.32014	0	
71	0.297087	0	0.970433	0	
72	0.231195	0	0.755078	0	
73	0.441526	0	1.06923	0	
74	0.781341	0	1.82714	0	
75	0.523553	0	1.44434	0	
76	0.367035	0	1.09004	0	
77	0.247984	0	0.797742	0	
78	0.202176	0	0.626152	0	
79	0.160763	0	0.504249	0	
80	0.156955	0	0.457998	0	
81	0.150237	0	0.422304	0	
82	0.144645	0	0.393795	0	
83	0.13908	0	0.374129	0	
84	0.136876	0	0.365092	0	
85	0.128348	0	0.350534	0	
86	0.142121	0	0.375935	0	
87	0.216009	0	0.698475	0	
88	0.374245	0	1.95183	0	
89	0.231281	0	1.17203	0	
90	0.197213	0	0.79781	0	
91	0.188996	0	0.630719	0	
92	0.188802	0	0.565221	0	
93	0.190788	0	0.546924	0	
94	0.200566	0	0.558532	0	
95	0.199841	0	0.562991	0	
96	0.199624	0	0.560791	0	
97	0.194255	0	0.570017	0	
98	0.204592	0	0.613509	0	
99	0.213104	0	0.635477	0	
100	0.201791	0	0.622043	0	
101	0.190645	0	0.591499	0	
102	0.17844	0	0.550225	0	
103	0.184779	0	0.541533	0	
104	0.193437	0	0.571897	0	
105	0.184159	0	0.571454	0	
106	0.174774	0	0.551364	0	
107	0.162049	0	0.510795	0	
108	0.153892	0	0.472641	0	
109	0.154081	0	0.457236	0	
110	0.156613	0	0.459785	0	
111	0.158028	0	0.464274	0	
112	0.161984	0	0.481484	0	
113	0.163609	0	0.506975	0	
114	0.166333	0	0.524347	0	
115	0.167313	0	0.533864	0	
116	0.163579	0	0.520859	0	
117	0.167341	0	0.522711	0	
118	0.164342	0	0.54261	0	
119	0.162043	0	0.547576	0	
120	0.159868	0	0.543402	0	
121	0.161885	0	0.548939	0	
122	0.160934	0	0.546591	0	
123	0.163135	0	0.556847	0	
124	0.161913	0	0.554934	0	
125	0.160029	0	0.544666	0	
126	0.158623	0	0.5316	0	
127	0.157467	0	0.519266	0	
128	0.154969	0	0.519834	0	
129	0.154273	0	0.516196	0	
130	0.155661	0	0.512095	0	
131	0.154006	0	0.501224	0	
132	0.159056	0	0.514513	0	
133	0.159277	0	0.519357	0	
134	0.159443	0	0.521263	0	
135	0.154888	0	0.512334	0	
136	0.155204	0	0.495167	0	
137	0.159142	0	0.503927	0	
138	0.162961	0	0.521959	0	
