#Output values file generated by Xhydro
5
ReportTime
point# 1
point# 3
point# 4
point# 2
1	0	0	0	0	
2	0	0	0	0	
3	0	0	0	0	
4	0	0	0	0	
5	0	0	0	0	
6	0	0	0	0	
7	0	0	0	0	
8	0	0	0	0	
9	0	0	0	0	
10	0	0	0	0	
11	0	0	0	0	
12	0	0	0	0	
13	0	0	0	0	
14	0	0	0	0	
15	0	0	0	0	
16	0	0	0	0	
17	0	0	0	0	
18	0	0	0	0	
19	0	0	0	0	
20	0	0	0	0	
21	0	0	0	0	
22	0	0	0	0	
23	0	0	0	0	
24	0	0	0	0	
25	0	0	0	0	
26	0	0	0	0	
27	0	0	0	0	
28	0	0	0	0	
29	0	0	0	0	
30	0	0	0	0	
31	0	0	0	0	
32	0	0	0	0	
33	0	0	0	0	
34	0	0	0	0	
35	0	0	0	0	
36	0	0	0	0	
37	0	0	0	0	
38	0	0	0	0	
39	0	0	0	0	
40	0	0	0	0	
41	0	0	0	0	
42	0	0	0	0	
43	0	0	0	0	
44	0	0	0	0	
45	0	0	0	0	
46	0	0	0	0	
47	0	0	0	0	
48	0	0	0	0	
49	0	0	0	0	
50	0	0	0	0	
51	0	0	0	0	
52	0	0	6.10008e-100	0	
53	0	0	1.75878e-98	0	
54	0	0	3.76724e-97	0	
55	0	0	1.10335e-94	0	
56	0	0	3.59206e-93	0	
57	0	0	5.3288e-92	0	
58	0	0	6.14775e-91	0	
59	0	0	3.89412e-90	0.108455	
60	0	0	3.146e-89	0.168963	
61	2.05791e-50	0	2.2315e-74	0.205708	
62	3.70271e-49	2.35189e-18	6.87976e-73	0.239564	
63	2.87282e-47	5.14982e-05	1.38202e-66	0.270491	
64	4.36983e-46	0.000133203	7.25198e-65	0.297125	
65	2.25504e-37	0.00023665	1.48027e-58	0.319789	
66	4.47522e-36	0.000322601	6.53622e-57	0.338731	
67	1.11761e-34	0.000462758	4.26391e-55	0.354161	
68	8.75423e-34	0.000600233	8.24787e-54	0.36588	
69	5.05714e-33	0.00075256	8.00234e-53	0.376818	
70	2.12438e-32	0.00090007	4.72971e-52	0.384937	
71	7.36788e-32	0.00106563	2.12241e-51	0.397406	
72	2.20187e-31	0.0105256	7.86946e-51	0.401777	
73	5.52502e-31	0.0747645	2.45722e-50	0.401878	
74	1.32365e-30	0.113403	1.32408e-45	0.401878	
75	4.63649e-30	0.128499	2.29619e-43	0.401878	
76	2.4934e-29	0.134523	3.25966e-42	0.401878	
77	1.35495e-28	0.136929	2.5277e-41	0.401878	
78	6.05369e-28	0.137931	1.3959e-40	0.401878	
79	2.23257e-27	0.13833	6.13804e-40	0.401878	
80	6.71835e-27	0.153594	2.2262e-39	0.401878	
81	1.81048e-26	0.163731	7.14065e-39	0.401878	
82	4.58475e-26	0.17185	2.10634e-38	0.401878	
83	1.07135e-25	0.174808	5.73578e-38	0.401878	
84	2.34797e-25	0.174808	1.48938e-37	0.401878	
85	4.89967e-25	0.174808	3.97369e-37	0.401878	
86	9.43302e-25	0.174808	9.2837e-37	0.401878	
87	1.51148e-24	0.17631	2.9098e-34	0.401878	
88	2.68398e-24	0.18529	1.31916e-17	0.401878	
89	2.25607e-17	0.189958	1.13727e-07	0.401878	
90	0.0272902	0.189958	1.35685e-07	0.401878	
91	0.0534269	0.189958	1.34602e-07	0.401878	
92	0.053419	0.189958	1.34592e-07	0.401878	
93	0.0593931	0.189958	1.34141e-07	0.401878	
94	0.059384	0.191262	1.34128e-07	0.401878	
95	0.079064	0.191262	1.32625e-07	0.401878	
96	0.0790516	0.191262	1.32612e-07	0.401878	
97	0.120507	0.191262	1.29323e-07	0.401878	
98	0.166317	0.191262	0.0455392	0.401878	
99	0.181924	0.191262	0.0477841	0.401878	
100	0.188104	0.191262	0.0479373	0.401878	
101	0.190553	0.191262	0.047876	0.401878	
102	0.191518	0.191262	0.047825	0.401878	
103	0.191887	0.191262	0.0477951	0.401878	
104	0.213573	0.191262	0.0709149	0.401878	
105	0.229015	0.191262	0.0830645	0.401878	
106	0.23906	0.191262	0.0828933	0.401878	
107	0.243034	0.191262	0.0827499	0.401878	
108	0.244595	0.191262	0.0826869	0.401878	
109	0.245195	0.191262	0.082646	0.401878	
110	0.250094	0.191262	0.0879189	0.401878	
111	0.252017	0.191262	0.0877165	0.401878	
112	0.256475	0.191262	0.101611	0.401878	
113	0.256429	0.191262	0.135071	0.401878	
114	0.256382	0.191262	0.134843	0.401878	
115	0.256335	0.191262	0.134627	0.401878	
116	0.256286	0.191262	0.134388	0.401878	
117	0.257583	0.191262	0.13415	0.401878	
118	0.271558	0.191262	0.181653	0.401878	
119	0.284008	0.191262	0.201689	0.401878	
120	0.293795	0.191262	0.215597	0.401878	
121	0.311274	0.191262	0.230191	0.401878	
122	0.325256	0.191262	0.247921	0.401878	
123	0.340869	0.191262	0.25361	0.401878	
124	0.353441	0.191262	0.249792	0.401878	
125	0.363337	0.191262	0.240627	0.401878	
126	0.371729	0.191262	0.227337	0.401878	
127	0.378819	0.191262	0.212605	0.401878	
128	0.382366	0.191262	0.210519	0.401878	
129	0.386589	0.191262	0.229276	0.401878	
130	0.391758	0.191262	0.244864	0.401878	
131	0.394122	0.191262	0.244418	0.401878	
132	0.407691	0.191262	0.240866	0.401878	
133	0.419422	0.191262	0.224199	0.401878	
134	0.431839	0.191262	0.203112	0.401878	
135	0.438485	0.191262	0.188309	0.401878	
136	0.445431	0.191262	0.195049	0.401878	
137	0.459398	0.191262	0.188344	0.401878	
138	0.459186	0.191262	0.175309	0.401878	
139	0.467383	0.191262	0.166713	0.401878	
140	0.478327	0.191262	0.187292	0.401878	
141	0.491425	0.191262	0.216824	0.401878	
142	0.490928	0.191262	0.212956	0.401878	
143	0.503615	0.191262	0.19807	0.401878	
144	0.516606	0.191262	0.205605	0.401878	
145	0.524665	0.191262	0.206024	0.401878	
146	0.530614	0.191262	0.207553	0.401878	
147	0.535779	0.191262	0.209382	0.401878	
148	0.543331	0.191262	0.209184	0.401878	
149	0.552256	0.191262	0.208976	0.401878	
150	0.566364	0.191262	0.208876	0.401878	
151	0.583447	0.191262	0.219557	0.401878	
152	0.601726	0.191262	0.226359	0.401878	
153	0.611049	0.191262	0.237303	0.401878	
154	0.61912	0.191262	0.237079	0.401878	
155	0.628587	0.191262	0.236978	0.401878	
156	0.638324	0.191262	0.23686	0.401878	
157	0.645081	0.191262	0.253868	0.401878	
158	0.656375	0.191262	0.25886	0.401878	
159	0.666333	0.191262	0.267568	0.401878	
160	0.675469	0.191262	0.273818	0.401878	
161	0.683736	0.191262	0.278897	0.401878	
162	0.693386	0.191262	0.2845	0.401878	
163	0.705126	0.191262	0.290917	0.401878	
164	0.715845	0.191262	0.297032	0.401878	
165	0.724248	0.191262	0.296828	0.401878	
166	0.735277	0.191262	0.308219	0.401878	
167	0.743107	0.191262	0.311423	0.401878	
168	0.737256	0.191262	0.315046	0.401878	
169	0.729921	0.191262	0.321992	0.401878	
170	0.723418	0.191262	0.331813	0.401878	
171	0.718039	0.191262	0.345671	0.401878	
172	0.712717	0.191262	0.357218	0.401878	
173	0.707486	0.19855	0.365954	0.401878	
174	0.702212	0.198964	0.377907	0.401878	
175	0.697028	0.204999	0.388269	0.401878	
176	0.692	0.213191	0.399441	0.401878	
177	0.686988	0.225603	0.408595	0.401878	
178	0.681958	0.243077	0.39713	0.401878	
179	0.676796	0.260792	0.387247	0.401878	
180	0.671856	0.273029	0.372621	0.401878	
181	0.666892	0.294409	0.363752	0.401878	
182	0.668154	0.315098	0.372369	0.401878	
183	0.667366	0.33198	0.368828	0.401878	
184	0.666124	0.355133	0.382157	0.401878	
185	0.664283	0.384243	0.397439	0.401878	
186	0.661988	0.419556	0.411186	0.401878	
187	0.661219	0.445741	0.422488	0.401878	
188	0.635724	0.472947	0.435283	0.401878	
189	0.613074	0.501128	0.440642	0.401878	
190	0.609938	0.533401	0.449879	0.401878	
191	0.60741	0.566083	0.460453	0.406979	
192	0.608434	0.600341	0.47176	0.419315	
193	0.610056	0.632984	0.481807	0.433715	
194	0.613185	0.661071	0.492755	0.442118	
195	0.620927	0.689992	0.508625	0.455604	
196	0.62687	0.720078	0.521771	0.477817	
197	0.629908	0.747438	0.531329	0.492105	
198	0.639782	0.77472	0.548534	0.514762	
199	0.643847	0.800392	0.559156	0.537897	
200	0.649176	0.824401	0.571099	0.561673	
201	0.654815	0.846638	0.583127	0.587015	
202	0.659776	0.866983	0.594153	0.612979	
203	0.621916	0.884285	0.586368	0.635257	
204	0.617512	0.900716	0.587105	0.656868	
205	0.617323	0.915229	0.594881	0.682183	
206	0.619769	0.928214	0.60143	0.707492	
207	0.566244	0.765545	0.601035	0.729411	
208	0.528268	0.669277	0.591208	0.751964	
209	0.496142	0.658168	0.586989	0.77569	
210	0.498453	0.658423	0.58899	0.799378	
211	0.513423	0.6652	0.595706	0.822005	
212	0.530683	0.67208	0.606542	0.842994	
213	0.547321	0.681202	0.622989	0.862808	
214	0.564861	0.693341	0.635006	0.881031	
215	0.534976	0.645387	0.643459	0.897056	
216	0.553566	0.663137	0.652319	0.911775	
217	0.563863	0.676787	0.66652	0.924918	
218	0.576771	0.690706	0.675628	0.936596	
219	0.58996	0.70416	0.685113	0.94688	
220	0.599341	0.714877	0.694758	0.955734	
221	0.613299	0.728283	0.702199	0.963517	
222	0.626783	0.738665	0.712562	0.97007	
223	0.640494	0.75308	0.720415	0.975802	
224	0.650615	0.76444	0.731685	0.980529	
225	0.658788	0.772004	0.74075	0.984299	
226	0.670411	0.782456	0.746494	0.987523	
227	0.68003	0.79036	0.755617	0.990115	
228	0.693188	0.800504	0.762868	0.992305	
229	0.70252	0.806648	0.772901	0.993986	
230	0.710886	0.812921	0.779235	0.995344	
231	0.719329	0.820839	0.786269	0.996432	
232	0.726557	0.825831	0.795335	0.997055	
233	0.732637	0.829422	0.801647	0.997147	
234	0.737143	0.832858	0.806798	0.997236	
235	0.683632	0.763716	0.794437	0.970746	
236	0.622069	0.691537	0.782001	0.943553	
237	0.634452	0.70635	0.781875	0.945288	
238	0.644308	0.721904	0.785868	0.947016	
239	0.5967	0.65575	0.791884	0.916721	
240	0.552544	0.59521	0.793798	0.888579	
241	0.574463	0.617903	0.80054	0.891178	
242	0.592452	0.638597	0.80446	0.891178	
243	0.548757	0.580207	0.802013	0.874741	
244	0.573247	0.598537	0.8065	0.874741	
245	0.599027	0.605929	0.809634	0.874741	
246	0.617835	0.601693	0.81618	0.874741	
247	0.625726	0.597494	0.82315	0.874741	
248	0.639149	0.592929	0.82568	0.874741	
249	0.648818	0.588146	0.829131	0.874741	
250	0.649786	0.582956	0.829999	0.874741	
251	0.66202	0.569199	0.829027	0.84724	
252	0.625326	0.555418	0.824385	0.820758	
253	0.575209	0.525331	0.805767	0.748823	
254	0.574699	0.521068	0.795525	0.748823	
255	0.583955	0.516773	0.787731	0.748823	
256	0.592458	0.512458	0.783901	0.748823	
257	0.602352	0.512001	0.783184	0.748823	
258	0.614272	0.511742	0.785477	0.748823	
259	0.594333	0.479499	0.76918	0.671184	
260	0.57484	0.461213	0.750178	0.630847	
261	0.573607	0.460844	0.742875	0.630847	
262	0.577345	0.460743	0.738484	0.630847	
263	0.583676	0.460743	0.7386	0.630847	
264	0.588813	0.460743	0.740879	0.630847	
265	0.593785	0.460743	0.7444	0.630847	
266	0.599974	0.460743	0.749112	0.630847	
267	0.605544	0.460743	0.753642	0.630847	
268	0.606877	0.460743	0.755396	0.630847	
269	0.607093	0.460743	0.75743	0.630847	
270	0.600185	0.460743	0.758257	0.630847	
271	0.593029	0.460743	0.75874	0.630847	
272	0.58563	0.460743	0.758458	0.630847	
273	0.577875	0.460743	0.757273	0.630847	
274	0.569907	0.460743	0.757163	0.630847	
275	0.561809	0.460743	0.756165	0.630847	
276	0.553607	0.460743	0.75448	0.630847	
277	0.546694	0.460743	0.753137	0.630847	
278	0.545393	0.460743	0.750702	0.630847	
279	0.544539	0.460743	0.747378	0.630847	
280	0.543544	0.460743	0.743735	0.630847	
281	0.542891	0.460743	0.739551	0.630847	
282	0.542272	0.460743	0.735033	0.630847	
283	0.541941	0.460743	0.730192	0.630847	
284	0.541602	0.460743	0.725296	0.630847	
285	0.541254	0.460743	0.721258	0.630847	
286	0.5409	0.460743	0.717812	0.630847	
287	0.540538	0.460743	0.714059	0.630847	
288	0.54017	0.460743	0.709306	0.630847	
289	0.539795	0.460743	0.703515	0.630847	
290	0.539415	0.460743	0.697249	0.630847	
291	0.539028	0.460743	0.68985	0.630847	
292	0.538637	0.460743	0.681291	0.630847	
293	0.53824	0.460743	0.674095	0.630847	
294	0.537838	0.460743	0.667435	0.630847	
295	0.537432	0.460743	0.65996	0.630847	
296	0.537022	0.460743	0.654524	0.630847	
297	0.536607	0.460743	0.650433	0.630847	
298	0.536189	0.460743	0.646189	0.630847	
299	0.535767	0.460743	0.641785	0.630847	
300	0.535343	0.460743	0.637243	0.630847	
301	0.534916	0.460743	0.632603	0.630847	
302	0.534485	0.460743	0.630137	0.630847	
303	0.534053	0.460743	0.629715	0.630847	
304	0.533618	0.460743	0.629281	0.630847	
305	0.53318	0.460743	0.628834	0.630847	
306	0.532741	0.460743	0.628377	0.630847	
307	0.5323	0.460743	0.627909	0.630847	
308	0.531858	0.460743	0.627431	0.630847	
309	0.531413	0.460743	0.626943	0.630847	
310	0.530968	0.460743	0.626447	0.630847	
311	0.530521	0.460743	0.625942	0.630847	
312	0.530073	0.460743	0.625429	0.630847	
313	0.529624	0.460743	0.624909	0.630847	
314	0.529175	0.460743	0.624381	0.630847	
315	0.528724	0.460743	0.623848	0.630847	
316	0.528273	0.460743	0.623308	0.630847	
317	0.527821	0.460743	0.622762	0.630847	
318	0.527369	0.460743	0.62221	0.630847	
319	0.526916	0.460743	0.621652	0.630847	
320	0.526462	0.460743	0.621089	0.630847	
321	0.526008	0.460743	0.62052	0.630847	
322	0.525554	0.460743	0.619947	0.630847	
323	0.525099	0.460743	0.619369	0.630847	
324	0.524645	0.460743	0.618788	0.630847	
325	0.4341	0.387179	0.566286	0.465361	
326	0.401578	0.362009	0.545755	0.423957	
327	0.39761	0.362009	0.545294	0.423957	
328	0.393671	0.362009	0.544829	0.423957	
329	0.387822	0.360473	0.543091	0.421443	
330	0.368115	0.345707	0.530159	0.397588	
331	0.364286	0.345707	0.529707	0.397588	
332	0.360754	0.345707	0.529253	0.397588	
333	0.342436	0.330491	0.515436	0.373398	
334	0.33955	0.330491	0.514997	0.373398	
335	0.336741	0.330491	0.514555	0.373398	
336	0.333952	0.330491	0.514109	0.373398	
337	0.330945	0.330491	0.513661	0.373398	
338	0.328181	0.330491	0.513209	0.373398	
339	0.325408	0.330491	0.512753	0.373398	
340	0.322709	0.330491	0.512295	0.373398	
341	0.30679	0.314454	0.497184	0.347638	
342	0.291313	0.299808	0.482827	0.324972	
343	0.258385	0.262679	0.441894	0.23961	
344	0.256127	0.262501	0.224163	0.23961	
345	0.254247	0.262341	0.203039	0.23961	
346	0.252387	0.262197	0.200302	0.23961	
347	0.250532	0.262075	0.197616	0.23961	
348	0.248678	0.261971	0.193224	0.23961	
349	0.22085	0.228562	0.181057	0.179995	
350	0.204443	0.211818	0.175646	0.160347	
351	0.18549	0.211526	0.175138	0.160347	
352	0.175026	0.211266	0.172303	0.160347	
353	0.171805	0.211039	0.168397	0.160347	
354	0.168387	0.210832	0.164487	0.160347	
355	0.16705	0.210646	0.162681	0.160347	
356	0.165738	0.210488	0.160628	0.160347	
357	0.165749	0.210355	0.157567	0.160347	
358	0.16588	0.210237	0.154972	0.160347	
359	0.165985	0.210131	0.153763	0.160347	
360	0.16607	0.210047	0.152833	0.160347	
361	0.166129	0.209977	0.148604	0.160347	
362	0.16616	0.209916	0.146905	0.160347	
363	0.166163	0.209864	0.146536	0.160347	
364	0.16614	0.209818	0.146257	0.160347	
365	0.166092	0.20978	0.147093	0.160347	
