#Output values file generated by Xhydro
5
ReportTime
point# 1
point# 3
point# 4
point# 2
1	2.59769	2.59587	2.59968	2.59475	
2	2.59526	2.59175	2.59767	2.58949	
3	2.59331	2.58756	2.59597	2.58433	
4	2.59115	2.58347	2.59409	2.57959	
5	2.58869	2.57948	2.59176	2.57501	
6	2.58614	2.57556	2.58925	2.57056	
7	2.58339	2.57155	2.58649	2.56607	
8	2.58116	2.56747	2.58377	2.56153	
9	2.5787	2.56345	2.58105	2.55705	
10	2.57613	2.55949	2.57833	2.55263	
11	2.57398	2.55558	2.57568	2.54826	
12	2.5716	2.55173	2.57294	2.544	
13	2.56904	2.54787	2.57011	2.53974	
14	2.56635	2.54398	2.56721	2.53545	
15	2.56356	2.54007	2.56423	2.53115	
16	2.56072	2.53617	2.56125	2.52683	
17	2.55779	2.53222	2.55818	2.52249	
18	2.55476	2.52823	2.55502	2.5181	
19	2.55195	2.52427	2.55196	2.51375	
20	2.54946	2.52034	2.54894	2.50947	
21	2.54722	2.51653	2.54624	2.50525	
22	2.54478	2.5128	2.54351	2.50112	
23	2.54225	2.5091	2.54074	2.49704	
24	2.53967	2.50543	2.53796	2.49299	
25	2.53705	2.50178	2.53516	2.48896	
26	2.5343	2.49807	2.53225	2.4849	
27	2.53213	2.49438	2.52983	2.48085	
28	2.5299	2.49069	2.52756	2.477	
29	2.52754	2.4871	2.52519	2.47323	
30	2.52513	2.48358	2.5228	2.46949	
31	2.52265	2.48007	2.52031	2.46576	
32	2.52006	2.47653	2.51771	2.462	
33	2.51747	2.47301	2.51514	2.45823	
34	2.51487	2.46949	2.51257	2.45446	
35	2.51232	2.46599	2.51	2.45072	
36	2.51019	2.46246	2.50793	2.44747	
37	2.50826	2.45909	2.50602	2.44442	
38	2.50633	2.45577	2.50419	2.44138	
39	2.50425	2.45259	2.5024	2.43837	
40	2.50234	2.44955	2.50061	2.43542	
41	2.50023	2.44651	2.49865	2.43237	
42	2.49803	2.44346	2.49658	2.42925	
43	2.49576	2.4404	2.49445	2.42605	
44	2.49347	2.43731	2.4923	2.42278	
45	2.49135	2.43429	2.49019	2.41982	
46	2.48974	2.43142	2.48824	2.41686	
47	2.48796	2.42864	2.48669	2.41385	
48	2.48598	2.42596	2.48506	2.41088	
49	2.484	2.42329	2.48334	2.40793	
50	2.48202	2.42064	2.4816	2.40504	
51	2.48006	2.41804	2.47977	2.40228	
52	2.47818	2.41546	2.478	2.39954	
53	2.47619	2.41276	2.47617	2.39654	
54	2.47413	2.40997	2.47429	2.39338	
55	2.47222	2.40733	2.47239	2.39064	
56	2.47018	2.40457	2.47039	2.38763	
57	2.46806	2.40169	2.46837	2.3845	
58	2.46585	2.39869	2.46629	2.3812	
59	2.46417	2.39616	2.46428	2.37772	
60	2.46252	2.39362	2.46242	2.375	
61	2.46088	2.39108	2.46058	2.37229	
62	2.45894	2.38844	2.45897	2.36944	
63	2.45696	2.38576	2.45735	2.36596	
64	2.45498	2.38309	2.45582	2.36222	
65	2.45299	2.3804	2.45431	2.35829	
66	2.45098	2.37769	2.45272	2.3542	
67	2.44907	2.37497	2.45114	2.34999	
68	2.44723	2.37236	2.44975	2.34567	
69	2.4452	2.36974	2.44806	2.34125	
70	2.44297	2.36676	2.44618	2.33678	
71	2.44056	2.36358	2.4441	2.33225	
72	2.43809	2.36024	2.44196	2.32768	
73	2.43613	2.35684	2.43991	2.32306	
74	2.43412	2.35414	2.43804	2.31841	
75	2.43182	2.3499	2.43601	2.31371	
76	2.42936	2.34525	2.43384	2.30897	
77	2.42675	2.34028	2.43155	2.30421	
78	2.42401	2.33498	2.42914	2.29941	
79	2.42115	2.32938	2.42662	2.2946	
80	2.41837	2.32353	2.42407	2.28975	
81	2.41572	2.31794	2.42148	2.28489	
82	2.41293	2.31229	2.41883	2.28001	
83	2.41001	2.30661	2.41608	2.27511	
84	2.40696	2.30088	2.41325	2.27019	
85	2.40379	2.29493	2.41033	2.26526	
86	2.40068	2.28884	2.40736	2.26032	
87	2.39807	2.28272	2.40465	2.25536	
88	2.39549	2.27663	2.40253	2.25039	
89	2.39266	2.27204	2.40043	2.24541	
90	2.38976	2.26742	2.39831	2.24042	
91	2.38721	2.26277	2.39614	2.23542	
92	2.38466	2.2581	2.39366	2.23041	
93	2.38176	2.2534	2.39099	2.2254	
94	2.37872	2.24869	2.38816	2.22038	
95	2.37546	2.24397	2.38522	2.21535	
96	2.37225	2.23923	2.38215	2.21032	
97	2.36885	2.23447	2.37902	2.20529	
98	2.36443	2.2297	2.37582	2.20025	
99	2.35985	2.22492	2.37296	2.19521	
100	2.35503	2.22013	2.36998	2.19017	
101	2.34996	2.21533	2.36684	2.18513	
102	2.34457	2.21052	2.36356	2.18009	
103	2.33893	2.2057	2.36017	2.17507	
104	2.33308	2.20088	2.35668	2.17006	
105	2.32758	2.19605	2.35323	2.16506	
106	2.32209	2.19121	2.34977	2.16007	
107	2.3165	2.18637	2.34621	2.1551	
108	2.31081	2.18153	2.34124	2.15013	
109	2.30495	2.17669	2.33581	2.14518	
110	2.29898	2.17184	2.33014	2.14023	
111	2.29304	2.16699	2.32431	2.1353	
112	2.28703	2.16215	2.31832	2.13038	
113	2.28104	2.1573	2.31226	2.12547	
114	2.27493	2.15245	2.30627	2.12057	
115	2.26872	2.14761	2.30015	2.11569	
116	2.26244	2.14276	2.29393	2.11081	
117	2.2561	2.13792	2.28762	2.10595	
118	2.24979	2.13308	2.28122	2.10109	
119	2.24386	2.12825	2.27518	2.09625	
120	2.23938	2.12341	2.26971	2.09142	
121	2.2349	2.11859	2.26429	2.0866	
122	2.23042	2.11376	2.25883	2.08179	
123	2.22593	2.10895	2.25335	2.07699	
124	2.22144	2.10413	2.24784	2.07221	
125	2.21695	2.09933	2.24229	2.06743	
126	2.21245	2.09453	2.23672	2.06266	
127	2.20796	2.08974	2.23114	2.05791	
128	2.20347	2.08495	2.22557	2.05317	
129	2.19898	2.08017	2.22001	2.04843	
130	2.19449	2.0754	2.21444	2.04371	
131	2.19001	2.07064	2.20888	2.039	
132	2.18554	2.06589	2.20334	2.0343	
133	2.18106	2.06114	2.1978	2.02961	
134	2.1766	2.05641	2.19227	2.02493	
135	2.17214	2.05169	2.18673	2.02026	
136	2.16769	2.04697	2.18121	2.01561	
137	2.16325	2.04227	2.17571	2.01096	
138	2.15751	2.03757	2.17024	2.00632	
139	2.15309	2.03289	2.16476	2.0017	
140	2.14868	2.02822	2.1593	1.99708	
141	2.14428	2.02356	2.15386	1.99248	
142	2.13859	2.01891	2.14844	1.98788	
143	2.13422	2.01428	2.14436	1.9833	
144	2.12986	2.00966	2.1403	1.97873	
145	2.12552	2.00505	2.13626	1.97417	
146	2.12119	2.00045	2.13223	1.96961	
147	2.11688	1.99587	2.12822	1.96507	
148	2.11258	1.99131	2.12423	1.96054	
149	2.10831	1.98675	2.12027	1.95602	
150	2.10405	1.98221	2.11635	1.95151	
151	2.09981	1.97769	2.11248	1.94701	
152	2.09559	1.97318	2.10866	1.94252	
153	2.09139	1.96869	2.1049	1.93804	
154	2.08721	1.96421	2.10118	1.93357	
155	2.08306	1.95975	2.09754	1.92911	
156	2.07892	1.95531	2.09395	1.92466	
157	2.07482	1.95089	2.09045	1.92023	
158	2.07074	1.94648	2.08705	1.9158	
159	2.06669	1.94209	2.08373	1.91138	
160	2.06266	1.93771	2.08051	1.90697	
161	2.05867	1.93336	2.07739	1.90257	
162	2.05471	1.92902	2.0744	1.89819	
163	2.05078	1.92471	2.07155	1.89381	
164	2.04689	1.92041	2.06886	1.88944	
165	2.04303	1.91613	2.06635	1.88508	
166	2.03922	1.91188	2.06413	1.88073	
167	2.0355	1.90764	2.06335	1.8764	
168	2.03189	1.90343	2.06263	1.87207	
169	2.02838	1.89924	2.06199	1.86775	
170	2.02498	1.89507	2.06141	1.86344	
171	2.02165	1.89092	2.0608	1.85914	
172	2.01847	1.8868	2.06035	1.85486	
173	2.01548	1.8827	2.06001	1.85058	
174	2.01259	1.87865	2.05969	1.84632	
175	2.00995	1.87462	2.05947	1.84207	
176	2.00761	1.87062	2.05938	1.83785	
177	2.0058	1.86665	2.05942	1.83366	
178	2.00513	1.8627	2.05956	1.82948	
179	2.00434	1.85878	2.05961	1.82532	
180	2.00378	1.85489	2.05989	1.82119	
181	2.00327	1.85104	2.06023	1.81708	
182	2.00296	1.84721	2.06075	1.813	
183	2.0027	1.84341	2.06134	1.80894	
184	2.00259	1.83965	2.06209	1.8049	
185	2.00261	1.83593	2.06299	1.80089	
186	2.00277	1.83224	2.06403	1.79691	
187	2.00301	1.82859	2.06517	1.79295	
188	2.0033	1.82498	2.06637	1.78901	
189	2.00366	1.82142	2.06766	1.78511	
190	2.00422	1.8179	2.06913	1.78123	
191	2.00494	1.81443	2.07075	1.77738	
192	2.0058	1.81101	2.07251	1.77358	
193	2.00679	1.8077	2.07441	1.76982	
194	2.0079	1.80453	2.07643	1.76608	
195	2.00914	1.80153	2.07859	1.76238	
196	2.01054	1.79871	2.08089	1.75871	
197	2.01204	1.79609	2.0833	1.75507	
198	2.01369	1.79371	2.08586	1.75147	
199	2.01547	1.79163	2.08855	1.74791	
200	2.01738	1.79103	2.09136	1.74439	
201	2.01943	1.79054	2.09431	1.74091	
202	2.02161	1.79017	2.09738	1.73748	
203	2.02343	1.78978	2.10026	1.73409	
204	2.02569	1.78958	2.1034	1.73075	
205	2.02815	1.78953	2.10673	1.72747	
206	2.03077	1.78961	2.11021	1.72425	
207	2.03322	1.7897	2.11365	1.72117	
208	2.0354	1.78978	2.11693	1.71822	
209	2.03822	1.79017	2.12056	1.71551	
210	2.04126	1.79072	2.12442	1.71302	
211	2.04447	1.79141	2.12844	1.71077	
212	2.04782	1.79222	2.13262	1.70885	
213	2.05131	1.79318	2.13692	1.7083	
214	2.05493	1.79427	2.14134	1.70786	
215	2.05852	1.79544	2.14578	1.70751	
216	2.06229	1.79673	2.15038	1.70727	
217	2.06619	1.79817	2.15508	1.70717	
218	2.07022	1.79975	2.15989	1.70719	
219	2.07437	1.80145	2.16481	1.70732	
220	2.07862	1.80328	2.16981	1.70759	
221	2.083	1.80523	2.17495	1.70797	
222	2.08747	1.80729	2.18015	1.70847	
223	2.09207	1.80947	2.18549	1.70907	
224	2.09675	1.81176	2.1909	1.7098	
225	2.10148	1.81418	2.19632	1.71067	
226	2.10634	1.8167	2.20188	1.71164	
227	2.11127	1.81933	2.20749	1.71272	
228	2.11631	1.82206	2.21322	1.71391	
229	2.12139	1.82489	2.21896	1.71523	
230	2.12656	1.82783	2.22478	1.71665	
231	2.13184	1.83086	2.2307	1.71816	
232	2.13714	1.83398	2.23663	1.7198	
233	2.14248	1.83719	2.24258	1.72154	
234	2.14788	1.84049	2.24856	1.72338	
235	2.15262	1.84341	2.25419	1.72483	
236	2.15749	1.84644	2.25987	1.72649	
237	2.16271	1.84977	2.26571	1.72846	
238	2.16808	1.85323	2.27165	1.73057	
239	2.17353	1.85679	2.27766	1.73277	
240	2.17887	1.86031	2.28364	1.73492	
241	2.18428	1.86395	2.2896	1.73725	
242	2.18977	1.86768	2.29558	1.7397	
243	2.19515	1.87135	2.30158	1.74204	
244	2.20066	1.87516	2.30761	1.74458	
245	2.20635	1.8791	2.31382	1.74723	
246	2.21213	1.88312	2.32004	1.74997	
247	2.21784	1.88717	2.32613	1.75142	
248	2.22362	1.89129	2.33223	1.75266	
249	2.22934	1.89543	2.33822	1.75382	
250	2.23522	1.89967	2.34436	1.75495	
251	2.24077	1.90371	2.35025	1.75589	
252	2.24608	1.90764	2.35594	1.75674	
253	2.25079	1.91115	2.3613	1.7574	
254	2.25606	1.91517	2.36682	1.75868	
255	2.26139	1.91929	2.37234	1.75992	
256	2.26677	1.92198	2.37791	1.76114	
257	2.27222	1.92459	2.38354	1.76235	
258	2.27762	1.92699	2.38911	1.76354	
259	2.28213	1.92891	2.39419	1.7641	
260	2.2866	1.93091	2.39912	1.76499	
261	2.29155	1.9331	2.40431	1.76626	
262	2.29666	1.93528	2.40961	1.76756	
263	2.30176	1.93739	2.41489	1.76883	
264	2.30685	1.93942	2.42014	1.77008	
265	2.31193	1.94141	2.42539	1.77131	
266	2.31697	1.94334	2.43059	1.77249	
267	2.32182	1.94511	2.43557	1.77359	
268	2.32664	1.94684	2.44054	1.77465	
269	2.33134	1.94847	2.44537	1.77565	
270	2.336	1.95005	2.45015	1.7766	
271	2.34059	1.95155	2.45486	1.7775	
272	2.34508	1.95298	2.45947	1.77833	
273	2.34971	1.95448	2.46424	1.7792	
274	2.35423	1.95589	2.46889	1.77999	
275	2.35865	1.95721	2.47342	1.78071	
276	2.3631	1.95851	2.478	1.78141	
277	2.36557	1.95968	2.48241	1.78202	
278	2.36771	1.96071	2.48665	1.78253	
279	2.36959	1.96173	2.49094	1.78302	
280	2.3711	1.96259	2.49503	1.78341	
281	2.37248	1.96343	2.49912	1.78375	
282	2.37365	1.96415	2.50309	1.784	
283	2.37485	1.96493	2.5072	1.78426	
284	2.3759	1.96563	2.51122	1.78444	
285	2.37673	1.96619	2.51507	1.78451	
286	2.37732	1.9666	2.51871	1.78448	
287	2.37783	1.96696	2.52232	1.78438	
288	2.37828	1.96728	2.52591	1.78423	
289	2.37851	1.96744	2.52929	1.78397	
290	2.37868	1.96757	2.53265	1.78365	
291	2.37889	1.96772	2.53608	1.78331	
292	2.37889	1.96772	2.53932	1.78286	
293	2.37869	1.96758	2.54235	1.78231	
294	2.37862	1.96752	2.54556	1.78176	
295	2.37853	1.96744	2.54879	1.78116	
296	2.37843	1.96734	2.55203	1.78053	
297	2.37816	1.96712	2.5551	1.77979	
298	2.37764	1.96673	2.55791	1.77894	
299	2.37713	1.96633	2.56075	1.77805	
300	2.37651	1.96585	2.56349	1.77709	
301	2.37566	1.96521	2.56599	1.77602	
302	2.37499	1.96467	2.5668	1.77496	
303	2.37424	1.96408	2.56717	1.77384	
304	2.37331	1.96335	2.56711	1.77263	
305	2.37235	1.96259	2.56686	1.77136	
306	2.37133	1.96178	2.56644	1.77003	
307	2.3702	1.96088	2.56582	1.76863	
308	2.36909	1.95999	2.56516	1.76719	
309	2.36784	1.95899	2.56428	1.76566	
310	2.36642	1.95787	2.56317	1.76405	
311	2.36505	1.95677	2.56208	1.76241	
312	2.36369	1.95567	2.56096	1.76073	
313	2.36194	1.95429	2.55937	1.75891	
314	2.36034	1.95301	2.55793	1.75709	
315	2.35853	1.95157	2.55623	1.75518	
316	2.35673	1.95014	2.55454	1.75324	
317	2.35485	1.94863	2.55272	1.75125	
318	2.35304	1.94717	2.55097	1.74925	
319	2.35118	1.94566	2.54916	1.7472	
320	2.34925	1.94411	2.54725	1.7451	
321	2.34728	1.94251	2.54527	1.74297	
322	2.34527	1.94088	2.54325	1.7408	
323	2.34315	1.93917	2.54108	1.73857	
324	2.34084	1.93731	2.5387	1.73626	
325	2.3382	1.93511	2.53623	1.73364	
326	2.33568	1.93303	2.53381	1.7314	
327	2.33352	1.93131	2.53145	1.72975	
328	2.33137	1.92954	2.52901	1.72807	
329	2.32912	1.92766	2.52642	1.72627	
330	2.3269	1.92573	2.52388	1.72434	
331	2.32468	1.92379	2.52121	1.72246	
332	2.32261	1.92191	2.51865	1.72063	
333	2.3206	1.91997	2.51605	1.71868	
334	2.31883	1.9182	2.51359	1.71693	
335	2.31711	1.91642	2.5111	1.71516	
336	2.31539	1.91461	2.50856	1.71337	
337	2.31353	1.91267	2.50581	1.71146	
338	2.31183	1.9108	2.5032	1.70959	
339	2.31014	1.9089	2.50053	1.70767	
340	2.3085	1.907	2.49788	1.70573	
341	2.30716	1.90506	2.49526	1.70365	
342	2.3075	1.90305	2.49251	1.70155	
343	2.30725	1.90083	2.48958	1.6995	
344	2.30728	1.89884	2.48986	1.69764	
345	2.30759	1.89708	2.49027	1.69597	
346	2.30803	1.8954	2.49074	1.69433	
347	2.3086	1.89379	2.49133	1.69271	
348	2.30928	1.89222	2.49202	1.69109	
349	2.30938	1.89058	2.49246	1.68926	
350	2.30972	1.88961	2.49293	1.68768	
351	2.31038	1.88868	2.49359	1.6864	
352	2.31114	1.88769	2.49435	1.68509	
353	2.31196	1.88664	2.49518	1.68373	
354	2.31274	1.88548	2.49596	1.68229	
355	2.31358	1.88429	2.49681	1.68083	
356	2.31453	1.88311	2.49776	1.67936	
357	2.3155	1.8819	2.49876	1.67786	
358	2.31644	1.88061	2.49971	1.67631	
359	2.31736	1.87927	2.50063	1.67471	
360	2.31852	1.87806	2.50182	1.67318	
361	2.31967	1.87679	2.503	1.67161	
362	2.32069	1.87541	2.50402	1.66995	
363	2.32175	1.87403	2.5051	1.66829	
364	2.32274	1.87257	2.50608	1.66656	
365	2.32386	1.87117	2.50722	1.66486	
