#Output values file generated by Xhydro
5
ReportTime
point# 1
point# 3
point# 4
point# 2
1	0	0	3.90871e-10	0	
2	0	0	3.93699e-10	0	
3	1.02955e-18	0	4.3091e-10	0	
4	7.32972e-15	0	4.49348e-10	0	
5	1.92486e-14	0	4.52952e-10	0	
6	3.99293e-14	0	4.5656e-10	0	
7	2.69031e-15	0	4.60272e-10	0	
8	3.22997e-15	0	4.64077e-10	0	
9	1.08359e-15	0	4.67869e-10	0	
10	5.9265e-16	0	4.71635e-10	0	
11	1.90413e-14	0	4.75445e-10	0	
12	6.56037e-14	0	4.79289e-10	0	
13	1.39367e-13	0	4.83165e-10	0	
14	2.42532e-13	0	4.87076e-10	0	
15	3.78082e-13	0	4.91031e-10	0	
16	5.49341e-13	0	4.94994e-10	0	
17	7.60133e-13	0	4.99019e-10	0	
18	1.01471e-12	0	5.03111e-10	0	
19	2.8952e-15	0	5.07232e-10	0	
20	4.08147e-15	0	5.11431e-10	0	
21	5.89751e-14	0	5.16779e-10	0	
22	2.06216e-13	0	5.21359e-10	0	
23	4.26265e-13	0	5.25958e-10	0	
24	7.82083e-13	0	5.30579e-10	0	
25	3.74333e-12	0	5.35219e-10	0	
26	4.66115e-12	0	5.39942e-10	0	
27	5.69115e-13	0	5.53698e-10	0	
28	2.2081e-12	0	5.62598e-10	0	
29	1.11305e-11	0	5.68196e-10	0	
30	2.50815e-11	0	5.73789e-10	0	
31	4.24964e-11	0	5.79437e-10	0	
32	2.93201e-12	0	5.85158e-10	0	
33	1.26884e-11	0	5.90879e-10	0	
34	2.90547e-11	0	5.96627e-10	0	
35	2.98505e-12	0	6.02422e-10	0	
36	1.01177e-11	0	6.16501e-10	0	
37	1.32831e-11	0	6.24992e-10	0	
38	1.70927e-11	0	6.3374e-10	0	
39	1.01655e-10	0	7.1005e-10	0	
40	1.06096e-10	0	7.18908e-10	0	
41	1.08551e-10	0	7.27521e-10	0	
42	1.10998e-10	0	7.36185e-10	0	
43	1.13479e-10	0	7.44889e-10	0	
44	1.15956e-10	0	7.53623e-10	0	
45	1.18468e-10	0	7.62429e-10	0	
46	1.24698e-10	0	7.71379e-10	0	
47	1.82938e-10	0	7.89652e-10	0	
48	3.4033e-10	0	8.77908e-10	0	
49	6.37231e-10	0	9.84076e-10	0	
50	1.00502e-09	0	1.09559e-09	0	
51	2.22406e-09	0	1.39583e-09	0	
52	2.26213e-09	0	1.41688e-09	0	
53	2.30039e-09	0	1.438e-09	0	
54	2.33885e-09	0	1.45924e-09	0	
55	2.3779e-09	0	1.48079e-09	0	
56	2.41739e-09	0	1.5026e-09	0	
57	2.45714e-09	0	1.52455e-09	0	
58	2.49722e-09	0	1.5467e-09	0	
59	2.55338e-09	0	1.56933e-09	0	
60	2.77148e-09	0	1.59665e-09	0	
61	2.88946e-09	0	1.62376e-09	0	
62	5.27896e-09	0	1.86652e-09	0	
63	6.09075e-09	0	1.97257e-09	0	
64	6.81255e-09	0	2.0926e-09	0	
65	7.48252e-09	0	2.19585e-09	0	
66	9.88876e-09	0	2.45899e-09	0	
67	1.01433e-08	0	2.50108e-09	0	
68	1.07121e-08	0	2.56108e-09	0	
69	1.0869e-08	0	2.60103e-09	0	
70	1.10273e-08	0	2.64136e-09	0	
71	1.11873e-08	0	2.68219e-09	0	
72	1.13489e-08	0	2.72338e-09	0	
73	1.15533e-08	0	2.7653e-09	0	
74	1.2364e-08	0	2.82471e-09	0	
75	1.25413e-08	0	2.86809e-09	0	
76	1.27197e-08	0	2.91184e-09	0	
77	1.28996e-08	0	2.95596e-09	0	
78	1.30812e-08	0	3.00056e-09	0	
79	1.32646e-08	0	3.0456e-09	0	
80	1.34509e-08	0	3.09128e-09	0	
81	1.364e-08	0	3.13762e-09	0	
82	1.38309e-08	0	3.18444e-09	0	
83	1.40236e-08	0	3.23172e-09	0	
84	1.42182e-08	0	3.27947e-09	0	
85	1.4415e-08	0	3.32773e-09	0	
86	1.46147e-08	0	3.37666e-09	0	
87	1.70228e-08	0	8.96809e-09	0	
88	2.4478e-08	0	0.00122123	0	
89	2.48076e-08	0	8.82601e-05	0	
90	2.51411e-08	0	4.63301e-07	0	
91	2.54906e-08	0	5.24528e-09	0	
92	2.59545e-08	0	4.77719e-09	0	
93	2.62989e-08	0	4.85208e-09	0	
94	2.66467e-08	0	4.99612e-09	0	
95	2.69994e-08	0	5.08927e-09	0	
96	2.73562e-08	0	5.08439e-09	0	
97	2.77183e-08	0	6.22752e-07	0	
98	2.812e-08	0	2.13507e-05	0	
99	2.9209e-08	0	8.35986e-06	0	
100	2.98018e-08	0	1.48882e-06	0	
101	3.01924e-08	0	4.649e-07	0	
102	3.0588e-08	0	1.54961e-07	0	
103	3.09881e-08	0	5.61839e-07	0	
104	3.13941e-08	0	5.49299e-06	0	
105	3.18139e-08	0	2.35095e-06	0	
106	3.23586e-08	0	1.01762e-06	0	
107	3.2949e-08	0	2.18919e-07	0	
108	3.3412e-08	0	9.67506e-08	0	
109	3.38528e-08	0	2.78337e-07	0	
110	3.42973e-08	0	1.22044e-06	0	
111	3.47546e-08	0	2.10878e-06	0	
112	3.52098e-08	0	1.67121e-06	0	
113	3.56704e-08	0	7.74506e-07	0	
114	3.61364e-08	0	6.84449e-07	0	
115	3.66079e-08	0	7.73715e-07	0	
116	3.7085e-08	0	7.57309e-07	0	
117	3.75678e-08	0	2.26196e-06	0	
118	3.80564e-08	0	3.86476e-05	0	
119	3.85505e-08	0	0.000134048	0	
120	3.93067e-08	0	0.000249428	0	
121	4.02033e-08	0	0.000950898	0	
122	4.14322e-08	0	0.00159088	0	
123	4.256e-08	0	0.00169919	0	
124	4.3803e-08	0	0.00198323	0	
125	4.495e-08	0	0.00173879	0	
126	4.60041e-08	0	0.00134851	0	
127	4.7012e-08	0	0.00113098	0	
128	4.79764e-08	0	0.00295299	0	
129	4.87782e-08	0	0.00455962	0	
130	4.96283e-08	0	0.00386265	0	
131	5.0542e-08	0	0.00419797	0	
132	5.13232e-08	0	0.00361271	0	
133	5.27433e-08	0	0.00352244	0	
134	5.4166e-08	0	0.00377033	0	
135	7.32502e-08	0	0.00572962	0	
136	3.40761e-07	0	0.00505137	0	
137	2.82087e-06	0	0.00529564	0	
138	2.69167e-05	0	0.00756422	0	
139	5.21599e-05	0	0.0112299	0	
140	6.24382e-05	0	0.0162097	0	
141	8.0744e-05	0	0.0157501	0	
142	9.40061e-05	0	0.0146765	0	
143	0.000111427	0	0.0232097	0	
144	0.000133861	0	0.0353628	0	
145	0.000112001	0	0.042412	0	
146	9.65247e-05	0	0.0512025	0	
147	8.91128e-05	0	0.0601616	0	
148	0.000105663	0	0.0690047	0	
149	0.00012873	0	0.0772046	0	
150	0.000198947	0	0.0881534	0	
151	0.00028318	0	0.101362	0	
152	0.000350685	0	0.115644	0	
153	0.000248433	0	0.114579	0	
154	0.000242741	0	0.120911	0	
155	0.000298568	0	0.128225	0	
156	0.000352411	0	0.135618	0	
157	0.000387124	0	0.136334	0	
158	0.00109954	0	0.14182	0	
159	0.00131432	0	0.139993	0	
160	0.00148041	0	0.139731	0	
161	0.00199695	0	0.150165	0	
162	0.00276336	0	0.153349	0	
163	0.00309567	0	0.155892	0	
164	0.00401198	0	0.159771	0	
165	0.00590018	0	0.165144	0	
166	0.00784764	0	0.168591	0	
167	0.00945481	0	0.159944	0	
168	0.00911563	0	0.144051	0	
169	0.00897463	0	0.132164	0	
170	0.0116614	0	0.140367	0	
171	0.0152387	0	0.202266	0	
172	0.0184653	0	0.244699	0	
173	0.0204745	0	0.269253	0	
174	0.0219552	0	0.288024	0	
175	0.024603	0	0.297339	0	
176	0.0248282	0	0.280301	0	
177	0.0276878	0	0.25927	0	
178	0.0335392	0	0.253417	0	
179	0.0470149	0	0.38841	0	
180	0.0508652	0	0.337717	0	
181	0.0575553	0	0.361498	0	
182	0.0588999	0	0.33592	0	
183	0.0610056	0	0.328983	0	
184	0.0637557	0	0.319078	0	
185	0.0685	0	0.313859	0	
186	0.0746749	0	0.320541	0	
187	0.0773456	0	0.31481	0	
188	0.0861984	0	0.329562	0	
189	0.0912048	0	0.357708	0	
190	0.0928815	0	0.35997	0	
191	0.0992589	0	0.355818	0	
192	0.107593	0	0.354748	0	
193	0.120542	0	0.359633	0	
194	0.135767	0	0.364133	0	
195	0.159978	0	0.379828	0	
196	0.18907	0	0.418341	0	
197	0.212429	0	0.45083	0	
198	0.236268	0	0.480967	0	
199	0.260323	0	0.520371	0	
200	0.283865	0	0.55604	0	
201	0.309678	0	0.594572	0	
202	0.331419	0	0.638407	0	
203	0.492722	0	0.884011	0	
204	0.44987	0	0.937537	0	
205	0.418651	0	0.906003	0	
206	0.4107	0	0.879337	0	
207	0.506541	0	0.97521	0	
208	0.785664	0	1.37179	0	
209	0.709637	0	1.4256	0	
210	0.613811	0	1.2978	0	
211	0.578029	0	1.17707	0	
212	0.579282	0	1.11268	0	
213	0.597089	0	1.10668	0	
214	0.609194	0	1.13692	0	
215	0.678102	0	1.24034	0	
216	0.676459	0	1.27347	0	
217	0.670144	0	1.27837	0	
218	0.670802	0	1.28832	0	
219	0.673842	0	1.29898	0	
220	0.678755	0	1.32184	0	
221	0.671763	0	1.34043	0	
222	0.667956	0	1.36276	0	
223	0.679281	0	1.4019	0	
224	0.721091	0	1.4714	0	
225	0.76732	0	1.57141	0	
226	0.794878	0	1.66469	0	
227	0.826336	0	1.75114	0	
228	0.865402	0	1.84852	0	
229	0.89196	0	1.92844	0	
230	0.898098	0	1.99214	0	
231	0.905041	0	2.04928	0	
232	0.921242	0	2.12574	0	
233	0.936552	0	2.21848	0	
234	0.948307	0	2.30202	0	
235	1.48537	0	3.23958	0	
236	1.47401	0	3.57104	0	
237	1.19165	0	3.19464	0	
238	1.06	0	2.8772	0	
239	1.05156	0	2.79883	0	
240	1.20618	0	3.0797	0	
241	1.09357	0	3.00217	0	
242	0.994831	0	2.82235	0	
243	1.08318	0	2.95861	0	
244	0.939973	0	2.76129	0	
245	0.832746	0	2.56831	0	
246	0.758527	0	2.41754	0	
247	0.710545	0	2.28482	0	
248	0.643604	0	2.13244	0	
249	0.568732	0	1.95564	0	
250	0.476939	0	1.76462	0	
251	0.53194	0	1.83719	0	
252	0.57681	0	1.9717	0	
253	0.818525	0	2.58714	0	
254	0.570017	0	2.19521	0	
255	0.39857	0	1.72975	0	
256	0.295179	0	1.41113	0	
257	0.222948	0	1.19125	0	
258	0.178577	0	1.04097	0	
259	0.356017	0	1.47684	0	
260	0.390322	0	1.66204	0	
261	0.243596	0	1.32672	0	
262	0.133538	0	0.968106	0	
263	0.0710945	0	0.727828	0	
264	0.0382548	0	0.581892	0	
265	0.0195593	0	0.479585	0	
266	0.00864407	0	0.407113	0	
267	0.00332815	0	0.366591	0	
268	0.00100871	0	0.338807	0	
269	3.93263e-07	0	0.310429	0	
270	2.2649e-07	0	0.281663	0	
271	2.26119e-07	0	0.249957	0	
272	2.25849e-07	0	0.219405	0	
273	2.25605e-07	0	0.185108	0	
274	2.25487e-07	0	0.150709	0	
275	2.25425e-07	0	0.129421	0	
276	2.25391e-07	0	0.108844	0	
277	2.25258e-07	0	0.0863258	0	
278	2.24944e-07	0	0.0737553	0	
279	2.24904e-07	0	0.064813	0	
280	2.24901e-07	0	0.0551982	0	
281	2.24876e-07	0	0.0489731	0	
282	2.24867e-07	0	0.0429772	0	
283	2.24816e-07	0	0.0370246	0	
284	2.24772e-07	0	0.0263151	0	
285	2.24737e-07	0	0.0181536	0	
286	2.24719e-07	0	0.0145817	0	
287	2.24687e-07	0	0.0141158	0	
288	2.24643e-07	0	0.0137772	0	
289	2.24618e-07	0	0.0126572	0	
290	2.24581e-07	0	0.011657	0	
291	2.24514e-07	0	0.00903557	0	
292	2.24469e-07	0	0.00510121	0	
293	2.24447e-07	0	0.00273679	0	
294	2.24377e-07	0	0.00122811	0	
295	2.2429e-07	0	0.000113108	0	
296	2.24186e-07	0	1.52514e-07	0	
297	2.24104e-07	0	1.52353e-07	0	
298	2.24062e-07	0	1.52281e-07	0	
299	2.23999e-07	0	1.52228e-07	0	
300	2.23946e-07	0	1.522e-07	0	
301	2.23932e-07	0	1.52172e-07	0	
302	2.23859e-07	0	1.5208e-07	0	
303	2.23792e-07	0	1.5193e-07	0	
304	2.23753e-07	0	1.51845e-07	0	
305	2.23708e-07	0	1.51755e-07	0	
306	2.23666e-07	0	1.51662e-07	0	
307	2.23637e-07	0	1.51572e-07	0	
308	2.2359e-07	0	1.51471e-07	0	
309	2.23567e-07	0	1.51378e-07	0	
310	2.23574e-07	0	1.51298e-07	0	
311	2.23556e-07	0	1.51204e-07	0	
312	2.23526e-07	0	1.51102e-07	0	
313	2.23585e-07	0	1.51042e-07	0	
314	2.23595e-07	0	1.50957e-07	0	
315	2.2365e-07	0	1.50892e-07	0	
316	2.2369e-07	0	1.5082e-07	0	
317	2.23747e-07	0	1.50753e-07	0	
318	2.23776e-07	0	1.50672e-07	0	
319	2.23811e-07	0	1.50593e-07	0	
320	2.23856e-07	0	1.50517e-07	0	
321	2.23906e-07	0	1.50443e-07	0	
322	2.23958e-07	0	1.50369e-07	0	
323	2.24033e-07	0	1.50306e-07	0	
324	2.24151e-07	0	1.50263e-07	0	
325	2.24399e-07	0	1.50245e-07	0	
326	2.24683e-07	0	1.5024e-07	0	
327	2.24808e-07	0	1.50225e-07	0	
328	2.24844e-07	0	1.50214e-07	0	
329	2.249e-07	0	1.50212e-07	0	
330	2.24956e-07	0	1.50204e-07	0	
331	2.25009e-07	0	1.50201e-07	0	
332	2.25031e-07	0	1.50187e-07	0	
333	2.25092e-07	0	1.50397e-07	0	
334	2.25104e-07	0	1.50147e-07	0	
335	2.25135e-07	0	1.50123e-07	0	
336	2.25165e-07	0	1.50101e-07	0	
337	2.25195e-07	0	1.50101e-07	0	
338	2.25174e-07	0	1.50076e-07	0	
339	2.25183e-07	0	1.50059e-07	0	
340	2.25182e-07	0	1.50036e-07	0	
341	2.25204e-07	0	1.50408e-07	0	
342	2.2537e-07	0	7.64676e-06	0	
343	2.73844e-06	0	0.0227958	0	
344	2.5225e-07	0	0.0348932	0	
345	2.27884e-07	0	0.0523964	0	
346	2.26167e-07	0	0.0571557	0	
347	2.25526e-07	0	0.0486849	0	
348	2.25502e-07	0	0.0358848	0	
349	8.18201e-05	0	0.0642086	0	
350	0.00377326	0	0.141411	0	
351	0.00222164	0	0.153312	0	
352	0.00110912	0	0.122253	0	
353	0.000630715	0	0.0854701	0	
354	0.000212665	0	0.0566478	0	
355	0.000112249	0	0.0384239	0	
356	2.97428e-06	0	0.0251517	0	
357	2.26898e-07	0	0.0151611	0	
358	2.26663e-07	0	0.00913947	0	
359	2.2658e-07	0	0.00613835	0	
360	2.26193e-07	0	0.00402704	0	
361	2.26036e-07	0	0.00132487	0	
362	2.25988e-07	0	0.000420591	0	
363	2.25936e-07	0	0.000124169	0	
364	2.25913e-07	0	6.32447e-06	0	
365	2.25869e-07	0	1.54005e-07	0	
